<?xml version="1.0" standalone="no"?>
<!DOCTYPE svg PUBLIC "-//W3C//DTD SVG 1.1//EN" "http://www.w3.org/Graphics/SVG/1.1/DTD/svg11.dtd" >
<svg xmlns="http://www.w3.org/2000/svg">
<metadata>Generated by IcoMoon</metadata>
<defs>
<font id="icomoon" horiz-adv-x="1024">
<font-face units-per-em="1024" ascent="960" descent="-64" />
<missing-glyph horiz-adv-x="1024" />
<glyph unicode="&#x20;" horiz-adv-x="512" d="" />
<glyph unicode="&#xe900;" glyph-name="arrow-down" horiz-adv-x="884" d="M856.436 425.193c2.833 3.274 6.994 5.334 11.636 5.334s8.803-2.059 11.62-5.314l0.016-0.019c3.027-3.3 4.881-7.717 4.881-12.567s-1.855-9.268-4.894-12.581l0.012 0.014-425.891-458.938c-2.833-3.274-6.994-5.334-11.636-5.334s-8.803 2.059-11.62 5.314l-0.016 0.019-425.891 460.335c-3.027 3.3-4.881 7.717-4.881 12.567s1.855 9.268 4.894 12.581l-0.012-0.014c2.898 3.148 7.037 5.114 11.635 5.12h0.001c4.599-0.006 8.738-1.972 11.626-5.109l0.010-0.011 397.964-430.080v945.804c0 8.997 7.294 16.291 16.291 16.291s16.291-7.294 16.291-16.291v-945.804z" />
<glyph unicode="&#xe901;" glyph-name="arrow-up" horiz-adv-x="884" d="M458.473 899.491v-945.804c0-8.997-7.294-16.291-16.291-16.291s-16.291 7.294-16.291 16.291v945.804l-397.964-428.684c-2.898-3.148-7.037-5.114-11.635-5.12h-0.001c-4.599 0.006-8.738 1.972-11.626 5.109l-0.010 0.011c-2.66 3.196-4.274 7.344-4.274 11.869s1.614 8.673 4.298 11.899l-0.024-0.030 425.891 460.335c2.833 3.274 6.994 5.334 11.636 5.334s8.803-2.059 11.62-5.314l0.016-0.019 425.891-460.335c3.027-3.3 4.881-7.717 4.881-12.567s-1.855-9.268-4.894-12.581l0.012 0.014c-2.833-3.274-6.994-5.334-11.636-5.334s-8.803 2.059-11.62 5.314l-0.016 0.019z" />
<glyph unicode="&#xe902;" glyph-name="arrow-left" horiz-adv-x="1186" d="M70.063 466.863h1095.141c10.418 0 18.863-8.445 18.863-18.863s-8.445-18.863-18.863-18.863h-1095.141l496.371-460.8c3.791-3.28 6.176-8.098 6.176-13.474s-2.385-10.193-6.154-13.455l-0.022-0.019c-3.821-3.504-8.935-5.652-14.552-5.652s-10.731 2.148-14.567 5.666l0.016-0.014-531.402 493.137c-3.791 3.28-6.176 8.098-6.176 13.474s2.385 10.193 6.154 13.455l0.022 0.019 533.019 493.137c3.821 3.504 8.935 5.652 14.552 5.652s10.731-2.148 14.567-5.666l-0.016 0.014c3.791-3.28 6.176-8.098 6.176-13.474s-2.385-10.193-6.154-13.455l-0.022-0.019z" />
<glyph unicode="&#xe903;" glyph-name="arrow-right" horiz-adv-x="1186" d="M619.251 927.663c-3.791 3.28-6.176 8.098-6.176 13.474s2.385 10.193 6.154 13.455l0.022 0.019c3.701 3.079 8.504 4.949 13.743 4.949s10.042-1.869 13.778-4.977l-0.035 0.028 531.402-493.137c3.791-3.28 6.176-8.098 6.176-13.474s-2.385-10.193-6.154-13.455l-0.022-0.019-531.402-493.137c-3.821-3.504-8.935-5.652-14.552-5.652s-10.731 2.148-14.567 5.666l0.016-0.014c-3.791 3.28-6.176 8.098-6.176 13.474s2.385 10.193 6.154 13.455l0.022 0.019 497.987 460.8h-1095.141c-10.418 0-18.863 8.445-18.863 18.863s8.445 18.863 18.863 18.863h1095.141z" />
</font></defs></svg>